…
``` r
DF_sprk
```

    ## # A tibble: 56 × 5
    ##    Laborwert Time  Treat   variable      x
    ##    <fct>     <fct> <fct>   <fct>     <dbl>
    ##  1 Albumin   t0    Control x        -2.28 
    ##  2 Albumin   t1    Control x         2.64 
    ##  3 Albumin   t2    Control x         0.742
    ##  4 Albumin   t4    Control x         0.814
    ##  5 Albumin   t0    Treat   x         0.230
    ##  6 Albumin   t1    Treat   x        -0.309
    ##  7 Albumin   t2    Treat   x        -0.309
    ##  8 Albumin   t4    Treat   x        -0.206
    ##  9 Amylase   t0    Control x         0.617
    ## 10 Amylase   t1    Control x        -1.90 
    ## # ℹ 46 more rows
…
``` r
#' Und das brauch ich zum Rechnen
DF |> Long(. ~ Treat)  |> tidyr::separate(variable, c("Time", "Laborwert"), sep="_")
```

    ## # A tibble: 56 × 4
    ##    Treat   Time  Laborwert  value
    ##    <fct>   <chr> <chr>      <dbl>
    ##  1 Control t0    Albumin   -2.28 
    ##  2 Control t0    Amylase    0.617
    ##  3 Control t0    Lipase    -0.390
    ##  4 Control t0    AST        0.296
    ##  5 Control t0    ALT        1.50 
    ##  6 Control t0    Bilirubin  0.933
    ##  7 Control t0    C.Peptid   0.846
    ##  8 Control t1    Albumin    2.64 
    ##  9 Control t1    Amylase   -1.90 
    ## 10 Control t1    Lipase     0.500
    ## # ℹ 46 more rows
…
Long(
  DF,
  .list = list(
    t0 = c("a1", "b1", "c1"),
    t1 = c("a2", "b2", "c2"),
    t2 = c("a3", "b3", "c3")
  ),
  by =  ~ id + group + age,
  names = c("a", "b", "c"),
  key = "time"
)
```

    ## # A tibble: 48 × 7
    ##       id group        age time        a       b       c
    ##    <int> <fct>      <dbl> <chr>   <dbl>   <dbl>   <dbl>
    ##  1     1 Control -0.643   t0    -0.171   2.09   -1.48  
    ##  2     2 Control  1.39    t0     0.123   0.0666 -0.943 
    ##  3     3 Control  0.108   t0     1.77    0.689  -0.678 
    ##  4     4 Control  1.62    t0    -0.0131  0.927   0.292 
    ##  5     5 Control -1.67    t0     0.716   0.901   1.84  
    ##  6     6 Control  0.00376 t0     0.522  -0.755  -0.0875
    ##  7     7 Control  0.185   t0     0.218  -0.683  -2.17  
    ##  8     8 Control -0.748   t0    -0.683  -0.420  -0.135 
    ##  9     9 Treat   -0.216   t0     0.739   0.387  -0.724 
    ## 10    10 Treat   -1.96    t0     1.83    0.166  -0.852 
    ## # ℹ 38 more rows
…
